{
  "name": null,
  "color": "grey",
  "numberOfLeaves": 5,
  "children": [
    {
      "name": null,
      "children": [
        {
          "name": "child with a strangely big name i dont know why",
          "color": "pink"
        },
        {
          "name": "child A2",
          "color": "pink"
        },
        {
          "name": "child A3",
          "color": "grey"
        }
      ]
    },
    {
      "name": null,
      "color": "grey",
      "children": [
        {
          "name": "child B1",
          "color": "grey"
        },
        {
          "name": "child B2",
          "color": "grey"
        }
      ]
    }
  ]
}