{
  "name": "uno",
  "numberOfLeaves": 6,
  "nChildren": 8,
  "longestDistance": 4,
  "branch_length": 0,
  "id": 0,
  "children": [
    {
      "name": "dos",
      "id": 20,
      "nChildren": 5,
      "branch_length": 1,
      "children": [
        {
          "name": "tres",
          "id": 30,
          "nChildren": 2,
          "branch_length": 2,
          "children": [
            {
              "id": 5,
              "name": "child with a strangely big name i dont know why",
              "branch_length": 3
            },
            {
              "id": 4,
              "name": "child 30",
              "branch_length": 4
            }
          ]
        },
        {
          "id": 2,
          "name": "child A2",
          "branch_length": 5
        },
        {
          "id": 23,
          "name": "child A3",
          "branch_length":6
        }
      ]
    },
    {
      "name": "catro",
      "id": 43,
      "nChildren": 2,
      "branch_length": 7,
      "children": [
        {
          "id": 54,
          "name": "child B1",
          "branch_length": 8
        },
        {
          "id": 101,
          "name": "child B2",
          "branch_length": 9
        }
      ]
    }
  ]
}